Climate resilience requires equitable access to quality green energy jobs. The City of Saint Paul is at the forefront.
…
Source: Article Notebook

Code

# Assess the number of duplicates in the merged dataset by counting occurrences of each O*NET-SOC Code
duplication_summary <- merged_green_jobs_data %>%
  group_by(`O*NET-SOC Code`) %>%
  summarise(count = n()) %>%
  arrange(desc(count))

# View the summary of duplication
print(duplication_summary)

# A tibble: 45 × 2
   `O*NET-SOC Code` count
   <chr>            <int>
 1 537062              21
 2 172141              12
 3 472061               8
 4 472111               7
 5 111021               6
 6 132051               6
 7 172051               6
 8 113071               3
 9 171011               3
10 172071               3
# ℹ 35 more rows
…
`summarise()` has grouped output by 'O*NET-SOC Sector', 'SCHL', 'RAC1P'. You
can override using the `.groups` argument.

Code

# View the summarized data
print(green_job_summary)

# A tibble: 52 × 6
# Groups:   O*NET-SOC Sector, SCHL, RAC1P [46]
   `O*NET-SOC Sector` SCHL                    RAC1P SEX   total_jobs mean_income
   <fct>              <fct>                   <fct> <fct>      <int>       <dbl>
 1 Energy Efficiency  1 or more years of col… Whit… Fema…         12      15000 
 2 Energy Efficiency  1 or more years of col… Whit… Male           1      41000 
 3 Energy Efficiency  Associate's degree      Whit… Male           1      46500 
 4 Energy Efficiency  Bachelor's degree       Two … Fema…         12     102000 
 5 Energy Efficiency  Bachelor's degree       Whit… Fema…          2      40000 
 6 Energy Efficiency  Bachelor's degree       Whit… Male          14      98786.
 7 Energy Efficiency  Grade 9                 Whit… Fema…          1          0 
 8 Energy Efficiency  Master's degree         Asia… Male          12      80000 
 9 Energy Efficiency  Master's degree         Whit… Fema…          1     113250 
10 Energy Efficiency  Regular high school di… Whit… Male           1      94000 
# ℹ 42 more rows
…
`summarise()` has grouped output by 'O*NET-SOC Sector', 'quality'. You can
override using the `.groups` argument.

Code

print(green_job_income_race_sector)

# A tibble: 24 × 6
   `O*NET-SOC Sector` quality      RAC1P    mean_income median_income total_jobs
   <fct>              <fct>        <fct>          <dbl>         <dbl>      <int>
 1 Energy Efficiency  High Quality Asian a…      80000          80000         12
 2 Energy Efficiency  High Quality Black o…      38000          38000          1
 3 Energy Efficiency  High Quality Two or …     102000         102000         12
 4 Energy Efficiency  High Quality White a…      51217.         43750         30
 5 Green Construction Low Quality  America…      30000          30000          1
 6 Green Construction Low Quality  Asian a…      23000           8000          3
 7 Green Construction Low Quality  Black o…      10108.          9500          6
 8 Green Construction Low Quality  Some Ot…      52000          55000          3
 9 Green Construction Low Quality  Two or …       4000           4000          2
10 Green Construction Low Quality  White a…      19093.         20000          7
# ℹ 14 more rows
…
